
# NAME     : pMSSM_M3muM1lsp_%6_%7
# DATA     : 0
# AF2      : 1
# PRIORITY : 10

mc15_13TeV.371350.MadGraphPythia8EvtGen_A14N_GG_pMSSM_M3muM1lsp_900_170.merge.DAOD_SUSY5.e4126_a766_a821_r7676_p2949
mc15_13TeV.371351.MadGraphPythia8EvtGen_A14N_GG_pMSSM_M3muM1lsp_1000_170.merge.DAOD_SUSY5.e4126_a766_a821_r7676_p2949
mc15_13TeV.371352.MadGraphPythia8EvtGen_A14N_GG_pMSSM_M3muM1lsp_1100_170.merge.DAOD_SUSY5.e4126_a766_a821_r7676_p2949
mc15_13TeV.371353.MadGraphPythia8EvtGen_A14N_GG_pMSSM_M3muM1lsp_1200_170.merge.DAOD_SUSY5.e4126_a766_a821_r7676_p2949
mc15_13TeV.371354.MadGraphPythia8EvtGen_A14N_GG_pMSSM_M3muM1lsp_1300_170.merge.DAOD_SUSY5.e4126_a766_a821_r7676_p2949
mc15_13TeV.371355.MadGraphPythia8EvtGen_A14N_GG_pMSSM_M3muM1lsp_1400_170.merge.DAOD_SUSY5.e4126_a766_a821_r7676_p2949
mc15_13TeV.371356.MadGraphPythia8EvtGen_A14N_GG_pMSSM_M3muM1lsp_1500_170.merge.DAOD_SUSY5.e4126_a766_a821_r7676_p2949
mc15_13TeV.371357.MadGraphPythia8EvtGen_A14N_GG_pMSSM_M3muM1lsp_1600_170.merge.DAOD_SUSY5.e4126_a766_a821_r7676_p2949
mc15_13TeV.371358.MadGraphPythia8EvtGen_A14N_GG_pMSSM_M3muM1lsp_1700_170.merge.DAOD_SUSY5.e4127_a766_a821_r7676_p2949
mc15_13TeV.371359.MadGraphPythia8EvtGen_A14N_GG_pMSSM_M3muM1lsp_1800_170.merge.DAOD_SUSY5.e4127_a766_a821_r7676_p2949
mc15_13TeV.371360.MadGraphPythia8EvtGen_A14N_GG_pMSSM_M3muM1lsp_1900_170.merge.DAOD_SUSY5.e4127_a766_a821_r7676_p2949
mc15_13TeV.371361.MadGraphPythia8EvtGen_A14N_GG_pMSSM_M3muM1lsp_2000_170.merge.DAOD_SUSY5.e4127_a766_a821_r7676_p2949
mc15_13TeV.371362.MadGraphPythia8EvtGen_A14N_GG_pMSSM_M3muM1lsp_2100_170.merge.DAOD_SUSY5.e4127_a766_a821_r7676_p2949
mc15_13TeV.371363.MadGraphPythia8EvtGen_A14N_GG_pMSSM_M3muM1lsp_2200_170.merge.DAOD_SUSY5.e4127_a766_a821_r7676_p2949
mc15_13TeV.371367.MadGraphPythia8EvtGen_A14N_GG_pMSSM_M3muM1lsp_900_200.merge.DAOD_SUSY5.e4126_a766_a821_r7676_p2949
mc15_13TeV.371368.MadGraphPythia8EvtGen_A14N_GG_pMSSM_M3muM1lsp_1000_200.merge.DAOD_SUSY5.e4126_a766_a821_r7676_p2949
mc15_13TeV.371369.MadGraphPythia8EvtGen_A14N_GG_pMSSM_M3muM1lsp_1100_200.merge.DAOD_SUSY5.e4126_a766_a821_r7676_p2949
mc15_13TeV.371370.MadGraphPythia8EvtGen_A14N_GG_pMSSM_M3muM1lsp_1200_200.merge.DAOD_SUSY5.e4126_a766_a821_r7676_p2949
mc15_13TeV.371371.MadGraphPythia8EvtGen_A14N_GG_pMSSM_M3muM1lsp_1300_200.merge.DAOD_SUSY5.e4126_a766_a821_r7676_p2949
mc15_13TeV.371372.MadGraphPythia8EvtGen_A14N_GG_pMSSM_M3muM1lsp_1400_200.merge.DAOD_SUSY5.e4126_a766_a821_r7676_p2949
mc15_13TeV.371373.MadGraphPythia8EvtGen_A14N_GG_pMSSM_M3muM1lsp_1500_200.merge.DAOD_SUSY5.e4126_a766_a821_r7676_p2949
mc15_13TeV.371374.MadGraphPythia8EvtGen_A14N_GG_pMSSM_M3muM1lsp_1600_200.merge.DAOD_SUSY5.e4126_a766_a821_r7676_p2949
mc15_13TeV.371375.MadGraphPythia8EvtGen_A14N_GG_pMSSM_M3muM1lsp_1700_200.merge.DAOD_SUSY5.e4127_a766_a821_r7676_p2949
mc15_13TeV.371376.MadGraphPythia8EvtGen_A14N_GG_pMSSM_M3muM1lsp_1800_200.merge.DAOD_SUSY5.e4127_a766_a821_r7676_p2949
mc15_13TeV.371377.MadGraphPythia8EvtGen_A14N_GG_pMSSM_M3muM1lsp_1900_200.merge.DAOD_SUSY5.e4127_a766_a821_r7676_p2949
mc15_13TeV.371378.MadGraphPythia8EvtGen_A14N_GG_pMSSM_M3muM1lsp_2000_200.merge.DAOD_SUSY5.e4127_a766_a821_r7676_p2949
mc15_13TeV.371379.MadGraphPythia8EvtGen_A14N_GG_pMSSM_M3muM1lsp_2100_200.merge.DAOD_SUSY5.e4127_a766_a821_r7676_p2949
mc15_13TeV.371380.MadGraphPythia8EvtGen_A14N_GG_pMSSM_M3muM1lsp_2200_200.merge.DAOD_SUSY5.e4127_a766_a821_r7676_p2949
mc15_13TeV.371384.MadGraphPythia8EvtGen_A14N_GG_pMSSM_M3muM1lsp_900_300.merge.DAOD_SUSY5.e4126_a766_a821_r7676_p2949
mc15_13TeV.371385.MadGraphPythia8EvtGen_A14N_GG_pMSSM_M3muM1lsp_1000_300.merge.DAOD_SUSY5.e4126_a766_a821_r7676_p2949
mc15_13TeV.371386.MadGraphPythia8EvtGen_A14N_GG_pMSSM_M3muM1lsp_1100_300.merge.DAOD_SUSY5.e4126_a766_a821_r7676_p2949
mc15_13TeV.371387.MadGraphPythia8EvtGen_A14N_GG_pMSSM_M3muM1lsp_1200_300.merge.DAOD_SUSY5.e4126_a766_a821_r7676_p2949
mc15_13TeV.371388.MadGraphPythia8EvtGen_A14N_GG_pMSSM_M3muM1lsp_1300_300.merge.DAOD_SUSY5.e4126_a766_a821_r7676_p2949
mc15_13TeV.371389.MadGraphPythia8EvtGen_A14N_GG_pMSSM_M3muM1lsp_1400_300.merge.DAOD_SUSY5.e4126_a766_a821_r7676_p2949
mc15_13TeV.371390.MadGraphPythia8EvtGen_A14N_GG_pMSSM_M3muM1lsp_1500_300.merge.DAOD_SUSY5.e4126_a766_a821_r7676_p2949
mc15_13TeV.371391.MadGraphPythia8EvtGen_A14N_GG_pMSSM_M3muM1lsp_1600_300.merge.DAOD_SUSY5.e4126_a766_a821_r7676_p2949
mc15_13TeV.371392.MadGraphPythia8EvtGen_A14N_GG_pMSSM_M3muM1lsp_1700_300.merge.DAOD_SUSY5.e4127_a766_a821_r7676_p2949
mc15_13TeV.371393.MadGraphPythia8EvtGen_A14N_GG_pMSSM_M3muM1lsp_1800_300.merge.DAOD_SUSY5.e4127_a766_a821_r7676_p2949
mc15_13TeV.371394.MadGraphPythia8EvtGen_A14N_GG_pMSSM_M3muM1lsp_1900_300.merge.DAOD_SUSY5.e4127_a766_a821_r7676_p2949
mc15_13TeV.371395.MadGraphPythia8EvtGen_A14N_GG_pMSSM_M3muM1lsp_2000_300.merge.DAOD_SUSY5.e4127_a766_a821_r7676_p2949
mc15_13TeV.371396.MadGraphPythia8EvtGen_A14N_GG_pMSSM_M3muM1lsp_2100_300.merge.DAOD_SUSY5.e4127_a766_a821_r7676_p2949
mc15_13TeV.371397.MadGraphPythia8EvtGen_A14N_GG_pMSSM_M3muM1lsp_2200_300.merge.DAOD_SUSY5.e4127_a766_a821_r7676_p2949
mc15_13TeV.371401.MadGraphPythia8EvtGen_A14N_GG_pMSSM_M3muM1lsp_900_400.merge.DAOD_SUSY5.e4126_a766_a821_r7676_p2949
mc15_13TeV.371402.MadGraphPythia8EvtGen_A14N_GG_pMSSM_M3muM1lsp_1000_400.merge.DAOD_SUSY5.e4126_a766_a821_r7676_p2949
mc15_13TeV.371403.MadGraphPythia8EvtGen_A14N_GG_pMSSM_M3muM1lsp_1100_400.merge.DAOD_SUSY5.e4126_a766_a821_r7676_p2949
mc15_13TeV.371404.MadGraphPythia8EvtGen_A14N_GG_pMSSM_M3muM1lsp_1200_400.merge.DAOD_SUSY5.e4126_a766_a821_r7676_p2949
mc15_13TeV.371405.MadGraphPythia8EvtGen_A14N_GG_pMSSM_M3muM1lsp_1300_400.merge.DAOD_SUSY5.e4126_a766_a821_r7676_p2949
mc15_13TeV.371406.MadGraphPythia8EvtGen_A14N_GG_pMSSM_M3muM1lsp_1400_400.merge.DAOD_SUSY5.e4126_a766_a821_r7676_p2949
mc15_13TeV.371407.MadGraphPythia8EvtGen_A14N_GG_pMSSM_M3muM1lsp_1500_400.merge.DAOD_SUSY5.e4126_a766_a821_r7676_p2949
mc15_13TeV.371408.MadGraphPythia8EvtGen_A14N_GG_pMSSM_M3muM1lsp_1600_400.merge.DAOD_SUSY5.e4126_a766_a821_r7676_p2949
mc15_13TeV.371409.MadGraphPythia8EvtGen_A14N_GG_pMSSM_M3muM1lsp_1700_400.merge.DAOD_SUSY5.e4127_a766_a821_r7676_p2949
mc15_13TeV.371410.MadGraphPythia8EvtGen_A14N_GG_pMSSM_M3muM1lsp_1800_400.merge.DAOD_SUSY5.e4127_a766_a821_r7676_p2949
mc15_13TeV.371411.MadGraphPythia8EvtGen_A14N_GG_pMSSM_M3muM1lsp_1900_400.merge.DAOD_SUSY5.e4127_a766_a821_r7676_p2949
mc15_13TeV.371412.MadGraphPythia8EvtGen_A14N_GG_pMSSM_M3muM1lsp_2000_400.merge.DAOD_SUSY5.e4127_a766_a821_r7676_p2949
mc15_13TeV.371413.MadGraphPythia8EvtGen_A14N_GG_pMSSM_M3muM1lsp_2100_400.merge.DAOD_SUSY5.e4127_a766_a821_r7676_p2949
mc15_13TeV.371414.MadGraphPythia8EvtGen_A14N_GG_pMSSM_M3muM1lsp_2200_400.merge.DAOD_SUSY5.e4127_a766_a821_r7676_p2949
mc15_13TeV.371418.MadGraphPythia8EvtGen_A14N_GG_pMSSM_M3muM1lsp_900_500.merge.DAOD_SUSY5.e4126_a766_a821_r7676_p2949
mc15_13TeV.371419.MadGraphPythia8EvtGen_A14N_GG_pMSSM_M3muM1lsp_1000_500.merge.DAOD_SUSY5.e4126_a766_a821_r7676_p2949
mc15_13TeV.371420.MadGraphPythia8EvtGen_A14N_GG_pMSSM_M3muM1lsp_1100_500.merge.DAOD_SUSY5.e4126_a766_a821_r7676_p2949
mc15_13TeV.371421.MadGraphPythia8EvtGen_A14N_GG_pMSSM_M3muM1lsp_1200_500.merge.DAOD_SUSY5.e4126_a766_a821_r7676_p2949
mc15_13TeV.371422.MadGraphPythia8EvtGen_A14N_GG_pMSSM_M3muM1lsp_1300_500.merge.DAOD_SUSY5.e4126_a766_a821_r7676_p2949
mc15_13TeV.371423.MadGraphPythia8EvtGen_A14N_GG_pMSSM_M3muM1lsp_1400_500.merge.DAOD_SUSY5.e4126_a766_a821_r7676_p2949
mc15_13TeV.371424.MadGraphPythia8EvtGen_A14N_GG_pMSSM_M3muM1lsp_1500_500.merge.DAOD_SUSY5.e4126_a766_a821_r7676_p2949
mc15_13TeV.371425.MadGraphPythia8EvtGen_A14N_GG_pMSSM_M3muM1lsp_1600_500.merge.DAOD_SUSY5.e4126_a766_a821_r7676_p2949
mc15_13TeV.371426.MadGraphPythia8EvtGen_A14N_GG_pMSSM_M3muM1lsp_1700_500.merge.DAOD_SUSY5.e4127_a766_a821_r7676_p2949
mc15_13TeV.371427.MadGraphPythia8EvtGen_A14N_GG_pMSSM_M3muM1lsp_1800_500.merge.DAOD_SUSY5.e4127_a766_a821_r7676_p2949
mc15_13TeV.371428.MadGraphPythia8EvtGen_A14N_GG_pMSSM_M3muM1lsp_1900_500.merge.DAOD_SUSY5.e4127_a766_a821_r7676_p2949
mc15_13TeV.371429.MadGraphPythia8EvtGen_A14N_GG_pMSSM_M3muM1lsp_2000_500.merge.DAOD_SUSY5.e4127_a766_a821_r7676_p2949
mc15_13TeV.371430.MadGraphPythia8EvtGen_A14N_GG_pMSSM_M3muM1lsp_2100_500.merge.DAOD_SUSY5.e4127_a766_a821_r7676_p2949
mc15_13TeV.371431.MadGraphPythia8EvtGen_A14N_GG_pMSSM_M3muM1lsp_2200_500.merge.DAOD_SUSY5.e4127_a766_a821_r7676_p2949
mc15_13TeV.371435.MadGraphPythia8EvtGen_A14N_GG_pMSSM_M3muM1lsp_900_600.merge.DAOD_SUSY5.e4126_a766_a821_r7676_p2949
mc15_13TeV.371436.MadGraphPythia8EvtGen_A14N_GG_pMSSM_M3muM1lsp_1000_600.merge.DAOD_SUSY5.e4126_a766_a821_r7676_p2949
mc15_13TeV.371437.MadGraphPythia8EvtGen_A14N_GG_pMSSM_M3muM1lsp_1100_600.merge.DAOD_SUSY5.e4126_a766_a821_r7676_p2949
mc15_13TeV.371438.MadGraphPythia8EvtGen_A14N_GG_pMSSM_M3muM1lsp_1200_600.merge.DAOD_SUSY5.e4126_a766_a821_r7676_p2949
mc15_13TeV.371439.MadGraphPythia8EvtGen_A14N_GG_pMSSM_M3muM1lsp_1300_600.merge.DAOD_SUSY5.e4126_a766_a821_r7676_p2949
mc15_13TeV.371440.MadGraphPythia8EvtGen_A14N_GG_pMSSM_M3muM1lsp_1400_600.merge.DAOD_SUSY5.e4126_a766_a821_r7676_p2949
mc15_13TeV.371441.MadGraphPythia8EvtGen_A14N_GG_pMSSM_M3muM1lsp_1500_600.merge.DAOD_SUSY5.e4126_a766_a821_r7676_p2949
mc15_13TeV.371442.MadGraphPythia8EvtGen_A14N_GG_pMSSM_M3muM1lsp_1600_600.merge.DAOD_SUSY5.e4126_a766_a821_r7676_p2949
mc15_13TeV.371443.MadGraphPythia8EvtGen_A14N_GG_pMSSM_M3muM1lsp_1700_600.merge.DAOD_SUSY5.e4127_a766_a821_r7676_p2949
mc15_13TeV.371444.MadGraphPythia8EvtGen_A14N_GG_pMSSM_M3muM1lsp_1800_600.merge.DAOD_SUSY5.e4127_a766_a821_r7676_p2949
mc15_13TeV.371445.MadGraphPythia8EvtGen_A14N_GG_pMSSM_M3muM1lsp_1900_600.merge.DAOD_SUSY5.e4127_a766_a821_r7676_p2949
mc15_13TeV.371446.MadGraphPythia8EvtGen_A14N_GG_pMSSM_M3muM1lsp_2000_600.merge.DAOD_SUSY5.e4127_a766_a821_r7676_p2949
mc15_13TeV.371447.MadGraphPythia8EvtGen_A14N_GG_pMSSM_M3muM1lsp_2100_600.merge.DAOD_SUSY5.e4127_a766_a821_r7676_p2949
mc15_13TeV.371448.MadGraphPythia8EvtGen_A14N_GG_pMSSM_M3muM1lsp_2200_600.merge.DAOD_SUSY5.e4127_a766_a821_r7676_p2949
mc15_13TeV.371452.MadGraphPythia8EvtGen_A14N_GG_pMSSM_M3muM1lsp_900_700.merge.DAOD_SUSY5.e4126_a766_a821_r7676_p2949
mc15_13TeV.371453.MadGraphPythia8EvtGen_A14N_GG_pMSSM_M3muM1lsp_1000_700.merge.DAOD_SUSY5.e4126_a766_a821_r7676_p2949
mc15_13TeV.371454.MadGraphPythia8EvtGen_A14N_GG_pMSSM_M3muM1lsp_1100_700.merge.DAOD_SUSY5.e4126_a766_a821_r7676_p2949
mc15_13TeV.371455.MadGraphPythia8EvtGen_A14N_GG_pMSSM_M3muM1lsp_1200_700.merge.DAOD_SUSY5.e4126_a766_a821_r7676_p2949
mc15_13TeV.371456.MadGraphPythia8EvtGen_A14N_GG_pMSSM_M3muM1lsp_1300_700.merge.DAOD_SUSY5.e4126_a766_a821_r7676_p2949
mc15_13TeV.371457.MadGraphPythia8EvtGen_A14N_GG_pMSSM_M3muM1lsp_1400_700.merge.DAOD_SUSY5.e4126_a766_a821_r7676_p2949
mc15_13TeV.371458.MadGraphPythia8EvtGen_A14N_GG_pMSSM_M3muM1lsp_1500_700.merge.DAOD_SUSY5.e4126_a766_a821_r7676_p2949
mc15_13TeV.371459.MadGraphPythia8EvtGen_A14N_GG_pMSSM_M3muM1lsp_1600_700.merge.DAOD_SUSY5.e4126_a766_a821_r7676_p2949
mc15_13TeV.371460.MadGraphPythia8EvtGen_A14N_GG_pMSSM_M3muM1lsp_1700_700.merge.DAOD_SUSY5.e4127_a766_a821_r7676_p2949
mc15_13TeV.371461.MadGraphPythia8EvtGen_A14N_GG_pMSSM_M3muM1lsp_1800_700.merge.DAOD_SUSY5.e4127_a766_a821_r7676_p2949
mc15_13TeV.371462.MadGraphPythia8EvtGen_A14N_GG_pMSSM_M3muM1lsp_1900_700.merge.DAOD_SUSY5.e4127_a766_a821_r7676_p2949
mc15_13TeV.371463.MadGraphPythia8EvtGen_A14N_GG_pMSSM_M3muM1lsp_2000_700.merge.DAOD_SUSY5.e4127_a766_a821_r7676_p2949
mc15_13TeV.371464.MadGraphPythia8EvtGen_A14N_GG_pMSSM_M3muM1lsp_2100_700.merge.DAOD_SUSY5.e4127_a766_a821_r7676_p2949
mc15_13TeV.371465.MadGraphPythia8EvtGen_A14N_GG_pMSSM_M3muM1lsp_2200_700.merge.DAOD_SUSY5.e4127_a766_a821_r7676_p2949
mc15_13TeV.371469.MadGraphPythia8EvtGen_A14N_GG_pMSSM_M3muM1lsp_900_800.merge.DAOD_SUSY5.e4126_a766_a821_r7676_p2949
mc15_13TeV.371470.MadGraphPythia8EvtGen_A14N_GG_pMSSM_M3muM1lsp_1000_800.merge.DAOD_SUSY5.e4126_a766_a821_r7676_p2949
mc15_13TeV.371471.MadGraphPythia8EvtGen_A14N_GG_pMSSM_M3muM1lsp_1100_800.merge.DAOD_SUSY5.e4126_a766_a821_r7676_p2949
mc15_13TeV.371472.MadGraphPythia8EvtGen_A14N_GG_pMSSM_M3muM1lsp_1200_800.merge.DAOD_SUSY5.e4126_a766_a821_r7676_p2949
mc15_13TeV.371473.MadGraphPythia8EvtGen_A14N_GG_pMSSM_M3muM1lsp_1300_800.merge.DAOD_SUSY5.e4126_a766_a821_r7676_p2949
mc15_13TeV.371474.MadGraphPythia8EvtGen_A14N_GG_pMSSM_M3muM1lsp_1400_800.merge.DAOD_SUSY5.e4126_a766_a821_r7676_p2949
mc15_13TeV.371475.MadGraphPythia8EvtGen_A14N_GG_pMSSM_M3muM1lsp_1500_800.merge.DAOD_SUSY5.e4126_a766_a821_r7676_p2949
mc15_13TeV.371476.MadGraphPythia8EvtGen_A14N_GG_pMSSM_M3muM1lsp_1600_800.merge.DAOD_SUSY5.e4126_a766_a821_r7676_p2949
mc15_13TeV.371477.MadGraphPythia8EvtGen_A14N_GG_pMSSM_M3muM1lsp_1700_800.merge.DAOD_SUSY5.e4127_a766_a821_r7676_p2949
mc15_13TeV.371478.MadGraphPythia8EvtGen_A14N_GG_pMSSM_M3muM1lsp_1800_800.merge.DAOD_SUSY5.e4127_a766_a821_r7676_p2949
mc15_13TeV.371479.MadGraphPythia8EvtGen_A14N_GG_pMSSM_M3muM1lsp_1900_800.merge.DAOD_SUSY5.e4127_a766_a821_r7676_p2949
mc15_13TeV.371480.MadGraphPythia8EvtGen_A14N_GG_pMSSM_M3muM1lsp_2000_800.merge.DAOD_SUSY5.e4127_a766_a821_r7676_p2949
mc15_13TeV.371481.MadGraphPythia8EvtGen_A14N_GG_pMSSM_M3muM1lsp_2100_800.merge.DAOD_SUSY5.e4127_a766_a821_r7676_p2949
mc15_13TeV.371482.MadGraphPythia8EvtGen_A14N_GG_pMSSM_M3muM1lsp_2200_800.merge.DAOD_SUSY5.e4127_a766_a821_r7676_p2949
