# NAME     : C1N2_WZ_%5_%6
# DATA     : 0
# AF2      : 0
# PRIORITY : 0

mc16_13TeV:mc16_13TeV.397061.MGPy8EG_A14N23LO_C1N2_WZ_900p0_0p0.deriv.DAOD_SUSY5.e7302_s3126_r9364_p4172
mc16_13TeV:mc16_13TeV.397062.MGPy8EG_A14N23LO_C1N2_WZ_900p0_200p0.deriv.DAOD_SUSY5.e7302_s3126_r9364_p4172
mc16_13TeV:mc16_13TeV.397063.MGPy8EG_A14N23LO_C1N2_WZ_900p0_400p0.deriv.DAOD_SUSY5.e7302_s3126_r9364_p4172
mc16_13TeV:mc16_13TeV.397725.MGPy8EG_A14N23LO_C1N2_WZ_300_0.deriv.DAOD_SUSY5.e7354_s3126_r9364_p4172
mc16_13TeV:mc16_13TeV.397726.MGPy8EG_A14N23LO_C1N2_WZ_500_200.deriv.DAOD_SUSY5.e7302_s3126_r9364_p4172
mc16_13TeV:mc16_13TeV.397727.MGPy8EG_A14N23LO_C1N2_WZ_600_300.deriv.DAOD_SUSY5.e7354_s3126_r9364_p4172
mc16_13TeV:mc16_13TeV.397728.MGPy8EG_A14N23LO_C1N2_WZ_700_400.deriv.DAOD_SUSY5.e7354_s3126_r9364_p4172
mc16_13TeV:mc16_13TeV.397729.MGPy8EG_A14N23LO_C1N2_WZ_800_500.deriv.DAOD_SUSY5.e7354_s3126_r9364_p4172
mc16_13TeV:mc16_13TeV.397730.MGPy8EG_A14N23LO_C1N2_WZ_400_50.deriv.DAOD_SUSY5.e7354_s3126_r9364_p4172
mc16_13TeV:mc16_13TeV.397731.MGPy8EG_A14N23LO_C1N2_WZ_400_0.deriv.DAOD_SUSY5.e7354_s3126_r9364_p4172
mc16_13TeV:mc16_13TeV.397732.MGPy8EG_A14N23LO_C1N2_WZ_500_100.deriv.DAOD_SUSY5.e7354_s3126_r9364_p4172
mc16_13TeV:mc16_13TeV.397733.MGPy8EG_A14N23LO_C1N2_WZ_600_200.deriv.DAOD_SUSY5.e7354_s3126_r9364_p4172
mc16_13TeV:mc16_13TeV.397734.MGPy8EG_A14N23LO_C1N2_WZ_700_300.deriv.DAOD_SUSY5.e7354_s3126_r9364_p4172
mc16_13TeV:mc16_13TeV.397735.MGPy8EG_A14N23LO_C1N2_WZ_800_400.deriv.DAOD_SUSY5.e7354_s3126_r9364_p4172
mc16_13TeV:mc16_13TeV.397736.MGPy8EG_A14N23LO_C1N2_WZ_900_500.deriv.DAOD_SUSY5.e7354_s3126_r9364_p4172
mc16_13TeV:mc16_13TeV.397737.MGPy8EG_A14N23LO_C1N2_WZ_500_0.deriv.DAOD_SUSY5.e7354_s3126_r9364_p4172
mc16_13TeV:mc16_13TeV.397738.MGPy8EG_A14N23LO_C1N2_WZ_600_100.deriv.DAOD_SUSY5.e7354_s3126_r9364_p4172
mc16_13TeV:mc16_13TeV.397739.MGPy8EG_A14N23LO_C1N2_WZ_700_200.deriv.DAOD_SUSY5.e7302_s3126_r9364_p4172
mc16_13TeV:mc16_13TeV.397740.MGPy8EG_A14N23LO_C1N2_WZ_800_300.deriv.DAOD_SUSY5.e7354_s3126_r9364_p4172
mc16_13TeV:mc16_13TeV.397741.MGPy8EG_A14N23LO_C1N2_WZ_1000_500.deriv.DAOD_SUSY5.e7354_s3126_r9364_p4172
mc16_13TeV:mc16_13TeV.397742.MGPy8EG_A14N23LO_C1N2_WZ_600_0.deriv.DAOD_SUSY5.e7354_s3126_r9364_p4172
mc16_13TeV:mc16_13TeV.397743.MGPy8EG_A14N23LO_C1N2_WZ_700_100.deriv.DAOD_SUSY5.e7354_s3126_r9364_p4172
mc16_13TeV:mc16_13TeV.397744.MGPy8EG_A14N23LO_C1N2_WZ_800_200.deriv.DAOD_SUSY5.e7354_s3126_r9364_p4172
mc16_13TeV:mc16_13TeV.397745.MGPy8EG_A14N23LO_C1N2_WZ_900_300.deriv.DAOD_SUSY5.e7354_s3126_r9364_p4172
mc16_13TeV:mc16_13TeV.397746.MGPy8EG_A14N23LO_C1N2_WZ_1000_400.deriv.DAOD_SUSY5.e7354_s3126_r9364_p4172
mc16_13TeV:mc16_13TeV.397747.MGPy8EG_A14N23LO_C1N2_WZ_1100_500.deriv.DAOD_SUSY5.e7354_s3126_r9364_p4172
mc16_13TeV:mc16_13TeV.397748.MGPy8EG_A14N23LO_C1N2_WZ_700_0.deriv.DAOD_SUSY5.e7354_s3126_r9364_p4172
mc16_13TeV:mc16_13TeV.397749.MGPy8EG_A14N23LO_C1N2_WZ_800_100.deriv.DAOD_SUSY5.e7354_s3126_r9364_p4172
mc16_13TeV:mc16_13TeV.397750.MGPy8EG_A14N23LO_C1N2_WZ_1000_300.deriv.DAOD_SUSY5.e7354_s3126_r9364_p4172
mc16_13TeV:mc16_13TeV.397751.MGPy8EG_A14N23LO_C1N2_WZ_1100_400.deriv.DAOD_SUSY5.e7354_s3126_r9364_p4172
mc16_13TeV:mc16_13TeV.397752.MGPy8EG_A14N23LO_C1N2_WZ_800_0.deriv.DAOD_SUSY5.e7354_s3126_r9364_p4172
mc16_13TeV:mc16_13TeV.397753.MGPy8EG_A14N23LO_C1N2_WZ_900_100.deriv.DAOD_SUSY5.e7354_s3126_r9364_p4172
mc16_13TeV:mc16_13TeV.397754.MGPy8EG_A14N23LO_C1N2_WZ_1000_200.deriv.DAOD_SUSY5.e7354_s3126_r9364_p4172
mc16_13TeV:mc16_13TeV.397755.MGPy8EG_A14N23LO_C1N2_WZ_1100_300.deriv.DAOD_SUSY5.e7354_s3126_r9364_p4172
mc16_13TeV:mc16_13TeV.397756.MGPy8EG_A14N23LO_C1N2_WZ_1200_400.deriv.DAOD_SUSY5.e7354_s3126_r9364_p4172
mc16_13TeV:mc16_13TeV.397757.MGPy8EG_A14N23LO_C1N2_WZ_1000_100.deriv.DAOD_SUSY5.e7354_s3126_r9364_p4172
mc16_13TeV:mc16_13TeV.397758.MGPy8EG_A14N23LO_C1N2_WZ_1100_200.deriv.DAOD_SUSY5.e7354_s3126_r9364_p4172
mc16_13TeV:mc16_13TeV.397759.MGPy8EG_A14N23LO_C1N2_WZ_1200_300.deriv.DAOD_SUSY5.e7354_s3126_r9364_p4172
mc16_13TeV:mc16_13TeV.397760.MGPy8EG_A14N23LO_C1N2_WZ_1000_0.deriv.DAOD_SUSY5.e7354_s3126_r9364_p4172
mc16_13TeV:mc16_13TeV.397761.MGPy8EG_A14N23LO_C1N2_WZ_1100_100.deriv.DAOD_SUSY5.e7354_s3126_r9364_p4172
mc16_13TeV:mc16_13TeV.397762.MGPy8EG_A14N23LO_C1N2_WZ_1200_200.deriv.DAOD_SUSY5.e7354_s3126_r9364_p4172
mc16_13TeV:mc16_13TeV.397763.MGPy8EG_A14N23LO_C1N2_WZ_1100_0.deriv.DAOD_SUSY5.e7354_s3126_r9364_p4172
mc16_13TeV:mc16_13TeV.397764.MGPy8EG_A14N23LO_C1N2_WZ_1200_100.deriv.DAOD_SUSY5.e7354_s3126_r9364_p4172
mc16_13TeV:mc16_13TeV.397765.MGPy8EG_A14N23LO_C1N2_WZ_1200_0.deriv.DAOD_SUSY5.e7354_s3126_r9364_p4172
