# NAME     : C1N2_Wh_hbb_%6_%7
# DATA     : 0
# AF2      : 1
# PRIORITY : 0

mc16_13TeV.396681.MadGraphPythia8EvtGen_A14N23LO_C1N2_Wh_hbb_150p0_0p0_lep.deriv.DAOD_SUSY5.e6972_a875_r10201_p4172
mc16_13TeV.396682.MadGraphPythia8EvtGen_A14N23LO_C1N2_Wh_hbb_152p5_22p5_lep.deriv.DAOD_SUSY5.e6972_a875_r10201_p4172
mc16_13TeV.396683.MadGraphPythia8EvtGen_A14N23LO_C1N2_Wh_hbb_162p5_12p5_lep.deriv.DAOD_SUSY5.e6972_a875_r10201_p4172
mc16_13TeV.396684.MadGraphPythia8EvtGen_A14N23LO_C1N2_Wh_hbb_165p0_35p0_lep.deriv.DAOD_SUSY5.e6972_a875_r10201_p4172
mc16_13TeV.396685.MadGraphPythia8EvtGen_A14N23LO_C1N2_Wh_hbb_175p0_0p0_lep.deriv.DAOD_SUSY5.e6972_a875_r10201_p4172
mc16_13TeV.396686.MadGraphPythia8EvtGen_A14N23LO_C1N2_Wh_hbb_175p0_25p0_lep.deriv.DAOD_SUSY5.e6972_a875_r10201_p4172
mc16_13TeV.396687.MadGraphPythia8EvtGen_A14N23LO_C1N2_Wh_hbb_177p5_47p5_lep.deriv.DAOD_SUSY5.e6972_a875_r10201_p4172
mc16_13TeV.396688.MadGraphPythia8EvtGen_A14N23LO_C1N2_Wh_hbb_187p5_12p5_lep.deriv.DAOD_SUSY5.e6972_a875_r10201_p4172
mc16_13TeV.396689.MadGraphPythia8EvtGen_A14N23LO_C1N2_Wh_hbb_187p5_37p5_lep.deriv.DAOD_SUSY5.e6972_a875_r10201_p4172
mc16_13TeV.396690.MadGraphPythia8EvtGen_A14N23LO_C1N2_Wh_hbb_190p0_60p0_lep.deriv.DAOD_SUSY5.e6972_a875_r10201_p4172
mc16_13TeV.396691.MadGraphPythia8EvtGen_A14N23LO_C1N2_Wh_hbb_200p0_0p0_lep.deriv.DAOD_SUSY5.e6972_a875_r10201_p4172
mc16_13TeV.396692.MadGraphPythia8EvtGen_A14N23LO_C1N2_Wh_hbb_200p0_25p0_lep.deriv.DAOD_SUSY5.e6972_a875_r10201_p4172
mc16_13TeV.396693.MadGraphPythia8EvtGen_A14N23LO_C1N2_Wh_hbb_200p0_50p0_lep.deriv.DAOD_SUSY5.e6972_a875_r10201_p4172
mc16_13TeV.396694.MadGraphPythia8EvtGen_A14N23LO_C1N2_Wh_hbb_202p5_72p5_lep.deriv.DAOD_SUSY5.e6972_a875_r10201_p4172
mc16_13TeV.396695.MadGraphPythia8EvtGen_A14N23LO_C1N2_Wh_hbb_212p5_37p5_lep.deriv.DAOD_SUSY5.e6972_a875_r10201_p4172
mc16_13TeV.396696.MadGraphPythia8EvtGen_A14N23LO_C1N2_Wh_hbb_212p5_62p5_lep.deriv.DAOD_SUSY5.e6972_a875_r10201_p4172
mc16_13TeV.396697.MadGraphPythia8EvtGen_A14N23LO_C1N2_Wh_hbb_225p0_0p0_lep.deriv.DAOD_SUSY5.e6972_a875_r10201_p4172
mc16_13TeV.396698.MadGraphPythia8EvtGen_A14N23LO_C1N2_Wh_hbb_225p0_25p0_lep.deriv.DAOD_SUSY5.e6972_a875_r10201_p4172
mc16_13TeV.396699.MadGraphPythia8EvtGen_A14N23LO_C1N2_Wh_hbb_225p0_50p0_lep.deriv.DAOD_SUSY5.e6972_a875_r10201_p4172
mc16_13TeV.396700.MadGraphPythia8EvtGen_A14N23LO_C1N2_Wh_hbb_225p0_75p0_lep.deriv.DAOD_SUSY5.e6972_a875_r10201_p4172
mc16_13TeV.396701.MadGraphPythia8EvtGen_A14N23LO_C1N2_Wh_hbb_237p5_62p5_lep.deriv.DAOD_SUSY5.e6972_a875_r10201_p4172
mc16_13TeV.396702.MadGraphPythia8EvtGen_A14N23LO_C1N2_Wh_hbb_250p0_0p0_lep.deriv.DAOD_SUSY5.e6972_a875_r10201_p4172
mc16_13TeV.396703.MadGraphPythia8EvtGen_A14N23LO_C1N2_Wh_hbb_250p0_25p0_lep.deriv.DAOD_SUSY5.e6972_a875_r10201_p4172
mc16_13TeV.396704.MadGraphPythia8EvtGen_A14N23LO_C1N2_Wh_hbb_250p0_50p0_lep.deriv.DAOD_SUSY5.e6972_a875_r10201_p4172
mc16_13TeV.396705.MadGraphPythia8EvtGen_A14N23LO_C1N2_Wh_hbb_250p0_75p0_lep.deriv.DAOD_SUSY5.e6972_a875_r10201_p4172
mc16_13TeV.396706.MadGraphPythia8EvtGen_A14N23LO_C1N2_Wh_hbb_250p0_100p0_lep.deriv.DAOD_SUSY5.e6972_a875_r10201_p4172
mc16_13TeV.396707.MadGraphPythia8EvtGen_A14N23LO_C1N2_Wh_hbb_275p0_0p0_lep.deriv.DAOD_SUSY5.e6972_a875_r10201_p4172
mc16_13TeV.396708.MadGraphPythia8EvtGen_A14N23LO_C1N2_Wh_hbb_275p0_25p0_lep.deriv.DAOD_SUSY5.e6972_a875_r10201_p4172
mc16_13TeV.396709.MadGraphPythia8EvtGen_A14N23LO_C1N2_Wh_hbb_275p0_50p0_lep.deriv.DAOD_SUSY5.e6972_a875_r10201_p4172
mc16_13TeV.396710.MadGraphPythia8EvtGen_A14N23LO_C1N2_Wh_hbb_275p0_75p0_lep.deriv.DAOD_SUSY5.e6972_a875_r10201_p4172
mc16_13TeV.396711.MadGraphPythia8EvtGen_A14N23LO_C1N2_Wh_hbb_300p0_0p0_lep.deriv.DAOD_SUSY5.e6972_a875_r10201_p4172
mc16_13TeV.396712.MadGraphPythia8EvtGen_A14N23LO_C1N2_Wh_hbb_300p0_25p0_lep.deriv.DAOD_SUSY5.e6972_a875_r10201_p4172
mc16_13TeV.396713.MadGraphPythia8EvtGen_A14N23LO_C1N2_Wh_hbb_300p0_50p0_lep.deriv.DAOD_SUSY5.e6972_a875_r10201_p4172
mc16_13TeV.396714.MadGraphPythia8EvtGen_A14N23LO_C1N2_Wh_hbb_300p0_75p0_lep.deriv.DAOD_SUSY5.e6972_a875_r10201_p4172
mc16_13TeV.396715.MadGraphPythia8EvtGen_A14N23LO_C1N2_Wh_hbb_300p0_100p0_lep.deriv.DAOD_SUSY5.e6972_a875_r10201_p4172
mc16_13TeV.396716.MadGraphPythia8EvtGen_A14N23LO_C1N2_Wh_hbb_300p0_150p0_lep.deriv.DAOD_SUSY5.e6972_a875_r10201_p4172
mc16_13TeV.396717.MadGraphPythia8EvtGen_A14N23LO_C1N2_Wh_hbb_325p0_0p0_lep.deriv.DAOD_SUSY5.e6972_a875_r10201_p4172
mc16_13TeV.396718.MadGraphPythia8EvtGen_A14N23LO_C1N2_Wh_hbb_325p0_50p0_lep.deriv.DAOD_SUSY5.e6972_a875_r10201_p4172
mc16_13TeV.396719.MadGraphPythia8EvtGen_A14N23LO_C1N2_Wh_hbb_350p0_0p0_lep.deriv.DAOD_SUSY5.e6972_a875_r10201_p4172
mc16_13TeV.396720.MadGraphPythia8EvtGen_A14N23LO_C1N2_Wh_hbb_350p0_25p0_lep.deriv.DAOD_SUSY5.e6972_a875_r10201_p4172
mc16_13TeV.396721.MadGraphPythia8EvtGen_A14N23LO_C1N2_Wh_hbb_350p0_50p0_lep.deriv.DAOD_SUSY5.e6972_a875_r10201_p4172
mc16_13TeV.396722.MadGraphPythia8EvtGen_A14N23LO_C1N2_Wh_hbb_350p0_75p0_lep.deriv.DAOD_SUSY5.e6972_a875_r10201_p4172
mc16_13TeV.396723.MadGraphPythia8EvtGen_A14N23LO_C1N2_Wh_hbb_350p0_100p0_lep.deriv.DAOD_SUSY5.e6972_a875_r10201_p4172
mc16_13TeV.396724.MadGraphPythia8EvtGen_A14N23LO_C1N2_Wh_hbb_350p0_150p0_lep.deriv.DAOD_SUSY5.e6972_a875_r10201_p4172
mc16_13TeV.396725.MadGraphPythia8EvtGen_A14N23LO_C1N2_Wh_hbb_350p0_200p0_lep.deriv.DAOD_SUSY5.e6972_a875_r10201_p4172
mc16_13TeV.396726.MadGraphPythia8EvtGen_A14N23LO_C1N2_Wh_hbb_375p0_0p0_lep.deriv.DAOD_SUSY5.e6972_a875_r10201_p4172
mc16_13TeV.396727.MadGraphPythia8EvtGen_A14N23LO_C1N2_Wh_hbb_375p0_50p0_lep.deriv.DAOD_SUSY5.e6972_a875_r10201_p4172
mc16_13TeV.396729.MadGraphPythia8EvtGen_A14N23LO_C1N2_Wh_hbb_400p0_25p0_lep.deriv.DAOD_SUSY5.e6972_a875_r10201_p4172
mc16_13TeV.396730.MadGraphPythia8EvtGen_A14N23LO_C1N2_Wh_hbb_400p0_50p0_lep.deriv.DAOD_SUSY5.e6972_a875_r10201_p4172
mc16_13TeV.396731.MadGraphPythia8EvtGen_A14N23LO_C1N2_Wh_hbb_400p0_100p0_lep.deriv.DAOD_SUSY5.e6972_a875_r10201_p4172
mc16_13TeV.396732.MadGraphPythia8EvtGen_A14N23LO_C1N2_Wh_hbb_400p0_150p0_lep.deriv.DAOD_SUSY5.e6972_a875_r10201_p4172
mc16_13TeV.396733.MadGraphPythia8EvtGen_A14N23LO_C1N2_Wh_hbb_400p0_200p0_lep.deriv.DAOD_SUSY5.e6972_a875_r10201_p4172
mc16_13TeV.396734.MadGraphPythia8EvtGen_A14N23LO_C1N2_Wh_hbb_400p0_250p0_lep.deriv.DAOD_SUSY5.e6972_a875_r10201_p4172
mc16_13TeV.396738.MadGraphPythia8EvtGen_A14N23LO_C1N2_Wh_hbb_450p0_100p0_lep.deriv.DAOD_SUSY5.e6972_a875_r10201_p4172
mc16_13TeV.396739.MadGraphPythia8EvtGen_A14N23LO_C1N2_Wh_hbb_450p0_150p0_lep.deriv.DAOD_SUSY5.e6972_a875_r10201_p4172
mc16_13TeV.396740.MadGraphPythia8EvtGen_A14N23LO_C1N2_Wh_hbb_450p0_200p0_lep.deriv.DAOD_SUSY5.e6972_a875_r10201_p4172
mc16_13TeV.396741.MadGraphPythia8EvtGen_A14N23LO_C1N2_Wh_hbb_450p0_250p0_lep.deriv.DAOD_SUSY5.e6972_a875_r10201_p4172
mc16_13TeV.396742.MadGraphPythia8EvtGen_A14N23LO_C1N2_Wh_hbb_450p0_300p0_lep.deriv.DAOD_SUSY5.e6972_a875_r10201_p4172
mc16_13TeV.396746.MadGraphPythia8EvtGen_A14N23LO_C1N2_Wh_hbb_500p0_150p0_lep.deriv.DAOD_SUSY5.e6989_a875_r10201_p4172
mc16_13TeV.396747.MadGraphPythia8EvtGen_A14N23LO_C1N2_Wh_hbb_500p0_200p0_lep.deriv.DAOD_SUSY5.e6972_a875_r10201_p4172
mc16_13TeV.396748.MadGraphPythia8EvtGen_A14N23LO_C1N2_Wh_hbb_500p0_250p0_lep.deriv.DAOD_SUSY5.e6972_a875_r10201_p4172
mc16_13TeV.396749.MadGraphPythia8EvtGen_A14N23LO_C1N2_Wh_hbb_500p0_300p0_lep.deriv.DAOD_SUSY5.e6972_a875_r10201_p4172
mc16_13TeV.396750.MadGraphPythia8EvtGen_A14N23LO_C1N2_Wh_hbb_500p0_350p0_lep.deriv.DAOD_SUSY5.e6972_a875_r10201_p4172
mc16_13TeV.396751.MadGraphPythia8EvtGen_A14N23LO_C1N2_Wh_hbb_535p0_400p0_lep.deriv.DAOD_SUSY5.e6972_a875_r10201_p4172
mc16_13TeV.396756.MadGraphPythia8EvtGen_A14N23LO_C1N2_Wh_hbb_550p0_200p0_lep.deriv.DAOD_SUSY5.e6972_a875_r10201_p4172
mc16_13TeV.396757.MadGraphPythia8EvtGen_A14N23LO_C1N2_Wh_hbb_550p0_250p0_lep.deriv.DAOD_SUSY5.e6972_a875_r10201_p4172
mc16_13TeV.396758.MadGraphPythia8EvtGen_A14N23LO_C1N2_Wh_hbb_550p0_300p0_lep.deriv.DAOD_SUSY5.e6972_a875_r10201_p4172
mc16_13TeV.396764.MadGraphPythia8EvtGen_A14N23LO_C1N2_Wh_hbb_600p0_250p0_lep.deriv.DAOD_SUSY5.e6972_a875_r10201_p4172
mc16_13TeV.396765.MadGraphPythia8EvtGen_A14N23LO_C1N2_Wh_hbb_600p0_300p0_lep.deriv.DAOD_SUSY5.e6972_a875_r10201_p4172
mc16_13TeV.396766.MadGraphPythia8EvtGen_A14N23LO_C1N2_Wh_hbb_600p0_350p0_lep.deriv.DAOD_SUSY5.e6972_a875_r10201_p4172
mc16_13TeV.396767.MadGraphPythia8EvtGen_A14N23LO_C1N2_Wh_hbb_600p0_400p0_lep.deriv.DAOD_SUSY5.e6972_a875_r10201_p4172
mc16_13TeV.396774.MadGraphPythia8EvtGen_A14N23LO_C1N2_Wh_hbb_650p0_300p0_lep.deriv.DAOD_SUSY5.e6972_a875_r10201_p4172
mc16_13TeV.396782.MadGraphPythia8EvtGen_A14N23LO_C1N2_Wh_hbb_700p0_350p0_lep.deriv.DAOD_SUSY5.e6972_a875_r10201_p4172
mc16_13TeV.396783.MadGraphPythia8EvtGen_A14N23LO_C1N2_Wh_hbb_700p0_400p0_lep.deriv.DAOD_SUSY5.e6972_a875_r10201_p4172
mc16_13TeV.396819.MadGraphPythia8EvtGen_A14N23LO_C1N2_Wh_hbb_585p0_450p0_lep.deriv.DAOD_SUSY5.e7402_a875_r10201_p4172
mc16_13TeV.396820.MadGraphPythia8EvtGen_A14N23LO_C1N2_Wh_hbb_600p0_450p0_lep.deriv.DAOD_SUSY5.e7402_a875_r10201_p4172
mc16_13TeV.396821.MadGraphPythia8EvtGen_A14N23LO_C1N2_Wh_hbb_635p0_500p0_lep.deriv.DAOD_SUSY5.e7402_a875_r10201_p4172
mc16_13TeV.396822.MadGraphPythia8EvtGen_A14N23LO_C1N2_Wh_hbb_650p0_450p0_lep.deriv.DAOD_SUSY5.e7402_a875_r10201_p4172
mc16_13TeV.396823.MadGraphPythia8EvtGen_A14N23LO_C1N2_Wh_hbb_650p0_500p0_lep.deriv.DAOD_SUSY5.e7402_a875_r10201_p4172
mc16_13TeV.396824.MadGraphPythia8EvtGen_A14N23LO_C1N2_Wh_hbb_700p0_450p0_lep.deriv.DAOD_SUSY5.e7402_a875_r10201_p4172
mc16_13TeV.396825.MadGraphPythia8EvtGen_A14N23LO_C1N2_Wh_hbb_700p0_500p0_lep.deriv.DAOD_SUSY5.e7402_a875_r10201_p4172
mc16_13TeV.396826.MadGraphPythia8EvtGen_A14N23LO_C1N2_Wh_hbb_750p0_450p0_lep.deriv.DAOD_SUSY5.e7402_a875_r10201_p4172
mc16_13TeV.396827.MadGraphPythia8EvtGen_A14N23LO_C1N2_Wh_hbb_750p0_500p0_lep.deriv.DAOD_SUSY5.e7402_a875_r10201_p4172
mc16_13TeV.396828.MadGraphPythia8EvtGen_A14N23LO_C1N2_Wh_hbb_800p0_450p0_lep.deriv.DAOD_SUSY5.e7402_a875_r10201_p4172
mc16_13TeV.396829.MadGraphPythia8EvtGen_A14N23LO_C1N2_Wh_hbb_800p0_500p0_lep.deriv.DAOD_SUSY5.e7402_a875_r10201_p4172
mc16_13TeV.396830.MadGraphPythia8EvtGen_A14N23LO_C1N2_Wh_hbb_900p0_450p0_lep.deriv.DAOD_SUSY5.e7402_a875_r10201_p4172
